<svg xmlns="http://www.w3.org/2000/svg" xmlns:xlink="http://www.w3.org/1999/xlink" width="120" height="60" viewBox="0 0 120 60">
    <defs>
        <path id="jntckzqcva" d="M0 0H120V60H0z"/>
        <path id="b4wpjdfqpc" d="M0.618 0.57L34.507 0.57 34.507 22.406 0.618 22.406z"/>
        <path id="fv348s7a8e" d="M0 0.04L10.965 0.04 10.965 11.435 0 11.435z"/>
        <path id="veky0sjjpg" d="M0.765 0.034L55.148 0.034 55.148 4.16 0.765 4.16z"/>
    </defs>
    <g fill="none" fill-rule="evenodd">
        <g>
            <g>
                <g transform="translate(-580 -1856) translate(182 1856) translate(398)">
                    <mask id="bo9m44jkjb" fill="#fff">
                        <use xlink:href="#jntckzqcva"/>
                    </mask>
                    <g mask="url(#bo9m44jkjb)">
                        <g>
                            <path fill="#1D1D1B" d="M95.165 46.008c-.412 0-.733-.32-.733-.757 0-.429.32-.753.733-.753.41 0 .73.324.73.753 0 .437-.32.757-.73.757m0-1.66c-.495 0-.917.383-.917.903 0 .524.422.905.917.905.492 0 .91-.381.91-.905 0-.52-.418-.903-.91-.903" transform="translate(0 4)"/>
                            <path fill="#1D1D1B" d="M94.973 45.188v-.322h.215c.107 0 .225.02.225.152 0 .16-.118.17-.25.17h-.19zm.335.125c.153-.016.269-.098.269-.285 0-.206-.118-.297-.367-.297h-.395v1.044h.158v-.453h.182l.273.453h.178l-.298-.462zM55.045 10.166c.53.006.892.164 1.186.303.614.294 1.33.628 2.23 1.065 0 .004 1.45-1.038 1.527-1.092.494-.337.97-.079 1.125.21.54 1.028 1.538 3.156 2.065 5.107.06.235-.012.595-.376.709-.211.058-.571.11-.948.158-.526.067-.515.495-.515.753l.002 3.205c.012.452-.33 1.928-2.026 1.928h-3.869c-1.462.005-2.64-1.24-2.648-2.562 0-.87 0-6.924.004-7.605.004-1.31 1.175-2.194 2.243-2.18" transform="translate(0 4)"/>
                            <g transform="translate(0 4) translate(31.034 1.51)">
                                <mask id="0aof6s8nsd" fill="#fff">
                                    <use xlink:href="#b4wpjdfqpc"/>
                                </mask>
                                <path fill="#1D1D1B" d="M17.89 21.002H5.31v1.404h14.76s.536-1.242.536-2.617l.004-9.535c0-.748.304-2.021 1.842-2.358.043-.009.086-.019.13-.027 4.355-1.034 8.843-.092 11.38 1.004.452.223.558-.141.543-.297.052-2.143-1.568-4.587-4.547-4.732-2.42-.056-3.764.817-4.256 1.056-.041.023-.1.013-.155-.05-.447-.442-1.399-1.104-2.47-1.412-.162-.035-.174-.274.008-.293 2.29-.25 4.299.015 5.133.15.192.033.341-.08.263-.258-.063-.137-.108-.198-.205-.408-.205-.443-.743-.91-1.428-1.102-1.804-.504-4.87-.938-7.603-.957-3.075-.019-6.319.599-7.138.786-.197.042-.472.112-.522.12-.223.047-.277.26-.178.367.058.064.23.208.31.308.102.129.148.31-.043.499l-5.69 5.135H9.92c.254-.008.494.225.494.518.002.262-.209.514-.473.514H4.85l-1.545 1.415h6.619l.037-.003c.26.003.464.269.457.518-.002.227-.192.506-.457.506l-.041.004H2.17L.62 12.661h13.372l.043.002c.263 0 .468.275.468.512.004.276-.189.522-.46.52H.618V15.1h13.36l.038.002c.309.004.487.28.487.532-.002.237-.226.49-.493.49H.618v1.411H18.1c.291.009.475.26.467.535-.008.24-.205.489-.465.489H5.316v1.414H17.89l.266-.002c.236 0 .439.293.439.533 0 .239-.207.497-.445.497h-.26z" mask="url(#0aof6s8nsd)"/>
                            </g>
                            <path fill="#1D1D1B" d="M41.044 27.366l-.002 1.44s1.891.006 2.969 0c2.657-.021 4.399-1.44 4.399-1.44h-7.366zM41.044 24.946l-.002 1.408h8.537c.393-.404.9-1.136 1.034-1.404l-9.569-.004zM89.431 44.945l-.242.014c-.078-.004-.157-.006-.242-.014-.457-.042-.819-.206-1.15-.46-.091-.08-.184-.169-.275-.27-.482-.545-.74-1.475-.803-2.207-.14-1.71.197-4.212 2.288-4.379.054-.006.104-.006.16-.006l.022-.002.025.002c.05 0 .104 0 .155.006 2.092.167 2.433 2.669 2.293 4.379-.062.732-.296 1.64-.805 2.207-.091.101-.184.19-.275.27-.333.254-.722.426-1.15.46m5.002-4.117l-.006-.068c-.043-.943-.354-1.787-.792-2.442-.917-1.44-2.518-2.218-4.447-2.193-1.926-.025-3.531.753-4.446 2.193-.438.655-.75 1.5-.792 2.442-.002.025-.006.043-.009.068-.26 3.162 1.573 5.348 4.7 5.602.185.014.367.023.547.02.18.003.365-.006.55-.02 3.125-.254 4.958-2.44 4.695-5.602M73.652 38.475c0-.782.075-2.159.075-2.159h-2.566s.077 1.377.077 2.159l-.004 5.635c0 .784-.073 2.115-.073 2.115h2.566s-.068-1.331-.068-2.115l-.007-5.635zM58.686 44.693c-.538 0-1.24 0-1.782.002-.026-.996-.035-1.957-.037-2.831l-.006-.135h.002v-.025h2.96v-1.4H56.87c.006-1.508.035-2.502.035-2.502h3.673v-1.485c-2.566.008-6.277 0-6.277 0s.055 1.366.055 2.148v5.627c0 .715-.043 1.932-.053 2.13h6.515l.008-1.57s-1.283.04-2.14.04M15.966 44.693c-.534 0-1.241 0-1.783.002-.025-.996-.036-1.957-.04-2.831l-.002-.135h.002v-.025h2.959v-1.4h-2.955c.009-1.508.036-2.502.036-2.502h3.674v-1.485c-2.568.008-6.275 0-6.275 0s.056 1.366.056 2.148v5.627c0 .715-.046 1.932-.054 2.13h6.515l.006-1.57s-1.282.04-2.139.04M67.072 40.895l2.828-4.578h-1.961l-.013.044c-.596 1.03-1.332 2.277-1.628 2.735l-.114.183-1.64-2.962h-2.945l2.841 5.127-2.959 4.78h1.95c1.257-2.167 1.911-3.163 1.911-3.163l1.755 3.163h2.935l-2.96-5.329zM81.647 44.878c-2.28 0-3.51-1.684-3.45-3.76.056-1.806.878-3.343 2.835-3.474.751-.05 1.361.081 2.415.364l-.108-1.55s-.892-.286-2.168-.334c-1.624-.063-3.095.251-4.267 1.341-1.044.963-1.667 2.39-1.667 3.773 0 1.533.627 2.946 1.802 3.923 1.225 1.04 2.539 1.275 4.099 1.275 1.024 0 1.626-.068 2.621-.34l-.147-1.52c-.215.074-.933.302-1.965.302M48.731 34.83h2.855l.079.661c.64 6.619 1.03 10.737 1.03 10.737h-2.973l-.294-4.101-.273-3.663-2.518 7.758c-.664.002-1.59 0-1.59 0s-.8-2.758-.944-3.14l-1.442-4.656s-.224 2.592-.309 3.699c-.173 2.223-.327 4.103-.327 4.103h-2.217s.906-9.268.976-9.832c.068-.58.178-1.566.178-1.566h2.915l2.415 6.673 2.439-6.673zM33.628 44.939c-.08.008-.161.01-.238.01-.079 0-.157 0-.242-.01-.457-.042-.815-.204-1.146-.46-.095-.073-.184-.166-.275-.266-.478-.541-.737-1.469-.8-2.201-.14-1.7.202-4.187 2.28-4.353.055-.002.106-.007.158-.007.006 0 .015-.004.025 0h.023c.05 0 .103.005.157.007 2.08.166 2.42 2.654 2.276 4.353-.06.732-.294 1.637-.799 2.2-.09.1-.182.194-.273.267-.329.256-.718.426-1.146.46m4.984-4.096c-.002-.023-.008-.048-.008-.066-.042-.945-.352-1.783-.79-2.434-.909-1.437-2.506-2.209-4.424-2.182-1.922-.027-3.52.745-4.428 2.182-.436.651-.746 1.49-.788 2.434-.002.018-.006.043-.006.066-.265 3.147 1.562 5.325 4.674 5.577.184.012.366.016.548.016.178 0 .36-.004.546-.016 3.11-.252 4.937-2.43 4.676-5.577" transform="translate(0 4)"/>
                            <g transform="translate(0 4) translate(0 34.79)">
                                <mask id="pwkiblg8gf" fill="#fff">
                                    <use xlink:href="#fv348s7a8e"/>
                                </mask>
                                <path fill="#1D1D1B" d="M3.7 6.584l1.236-3.69.072-.218L6.3 6.584H3.701zm7.265 4.849c-.087-.204-.615-1.46-1.001-2.474L6.63.04H4.038s-.739 2.09-.844 2.436L.76 9.392c-.317.884-.762 2.043-.762 2.043h2.117s.6-1.922.724-2.27l.327-.96h3.668l.499 1.462c.105.274.54 1.745.548 1.766h3.083z" mask="url(#pwkiblg8gf)"/>
                            </g>
                            <path fill="#1D1D1B" d="M23.77 40.694c-.383.198-1.246.144-1.672.119l.033-2.833.238-.015c.786-.064 1.357.042 1.593.15.354.154.559.487.578 1.048.03.834-.286 1.28-.77 1.531zm4.527 5.53c-.613-.885-.838-1.25-1.31-1.898l-1.767-2.76c.85-.423 1.65-1.13 1.771-2.609.075-.927-.418-1.693-.711-1.953-.425-.38-.838-.534-1.428-.607-.472-.063-.813-.067-1.097-.081h-4.16s.05 1.366.05 2.15v5.604c0 .784-.05 2.153-.05 2.153h2.56s-.075-1.369-.075-2.153l.018-1.797s.557 0 .95.004l1.62 2.983c.217.378.532.855.606.965h3.023zM114.895 31.076L114.788 31.026 114.815 30.968 115.106 31.099 115.078 31.159 114.97 31.11 114.829 31.428 114.755 31.394zM115.162 31.123L115.282 31.181 115.232 31.506 115.232 31.508 115.458 31.269 115.576 31.327 115.396 31.699 115.326 31.664 115.475 31.358 115.224 31.614 115.154 31.579 115.204 31.223 115.201 31.223 115.052 31.531 114.982 31.495zM116.041 34.345l-.008.01c1.409 1.423 2.336 3.343 2.487 5.504.329 4.771-3.249 8.912-7.997 9.245-2.228.156-4.322-.555-5.946-1.849l-.008.008c1.684 1.581 3.995 2.484 6.475 2.31 4.749-.334 8.328-4.475 7.995-9.248-.168-2.411-1.303-4.522-2.998-5.98M100.767 44.195c-.273.154-.335.385-.194.74.13.327.333.468.55.381.174-.07.205-.22.13-.611l-.03-.152c-.07-.387-.083-.551-.036-.716.044-.187.15-.308.313-.374.389-.156.757.085.976.638.236.595.11 1.045-.351 1.238l-.116-.291c.32-.142.401-.443.23-.876-.14-.353-.363-.51-.599-.414-.188.075-.233.252-.165.653l.027.169.027.147c.051.298.056.404.027.53-.038.157-.139.273-.3.338-.365.148-.716-.069-.915-.566-.213-.537-.1-.938.313-1.121l.113.287zM100.524 41.067L101.831 39.96 101.84 40.368 100.733 41.292 101.093 41.689 101.869 41.672 101.877 41.992 99.655 42.042 99.647 41.72 100.522 41.701 100.642 41.703 100.756 41.699 100.679 41.622 100.604 41.541 99.62 40.474 99.611 40.05zM101.508 37.608l.856.301-.105.306-.857-.304-1.535.464.13-.368.952-.268.118-.034c.048-.012.079-.018.161-.035-.074-.09-.093-.11-.17-.223l-.587-.798.122-.352.915 1.31zM103.012 33.508L102.542 34.084 103.945 35.238 103.608 35.652 102.205 34.498 101.737 35.072 101.419 34.81 102.693 33.248zM106.01 31.39L104.889 32.049 105.129 32.461 106.157 31.856 106.35 32.185 105.322 32.79 105.597 33.264 106.741 32.592 106.948 32.95 105.344 33.892 104.221 31.962 105.804 31.034zM109.041 31.106c-.122-.204-.17-.296-.238-.454-.02.158-.043.277-.095.508l-.093.424.645-.102-.219-.376zm1.27 1.152l-.58.038-.289-.483-.895.143-.125.55-.554.143.586-2.442.546-.087 1.311 2.138zM113.882 32.972l-.47-.179.178-.663c.021-.08.05-.185.09-.32.037-.14.068-.25.092-.329l.085-.28.054-.159c-.13.225-.182.304-.304.489-.05.079-.097.146-.137.202l-.629.888-.405-.106-.126-1.067c-.01-.054-.015-.133-.023-.24-.006-.14-.015-.245-.019-.32-.002-.06-.002-.15 0-.27l-.056.27c-.064.293-.095.422-.184.772l-.184.72-.492-.077.556-2.186.747.145.106 1.034c.029.243.033.445.022.734.083-.164.114-.22.211-.37l.17-.264.586-.845.71.242-.578 2.18z" transform="translate(0 4)"/>
                            <path fill="#1D1D1B" d="M113.83 40.18c.641-.435 1.175-.666 1.506-.656.196.006.432.067.432.31 0 .252-.238.46-.703.626-.406.148-1.03.185-1.711.108.186-.172.343-.3.476-.389m-9.015.793c-.4-.027-.594-.187-.594-.495 0-.042.027-1.02 2.256-1.132.252-.012.538-.02.97.03-.019 0-.252.216-.252.216l-.14.127c-.537.488-1.437 1.31-2.24 1.254m4.819-3.696c-.27.237-.803.753-1.32 1.25l-.584.563c-.478-.087-.947-.129-1.433-.129-1.085 0-2.076.3-2.527.764-.171.179-.256.37-.252.574.01.526.61.79.792.859.962.362 1.77.256 2.616-.34.47-.33 1.032-.858 1.47-1.282.344.08.733.18 1.149.303l.385.115c-.499.49-1.012 1.013-1.488 1.435l-.035.031c-.66.585-1.138 1.009-1.825 1.163-.486.108-.832.006-.943-.065-.01.002-.027.021-.027.021.4.33.776.518 1.425.462.621-.054 1.335-.445 2.067-1.134l.987-.975.691-.69c0 .005 1.399.411 1.399.411l.025.008c-.015 0-.865.847-.865.847l-.743.745c-.761.74-1.175 1.129-1.62 1.443-.737.524-1.363.799-1.92.836-.288.019-.701-.002-1.047-.206-.016-.002-.037.017-.037.017.376.324.838.71 1.628.688.898-.025 1.693-.46 2.928-1.601.565-.52 1.123-1.103 1.62-1.616l.916-.936c.604.135 1.146.191 1.744.179.871-.017 1.612-.437 1.622-.916.009-.353-.28-.543-.453-.655-.142-.093-.533-.312-1.071-.312-.652 0-1.333.29-2.024.861l-.46.408c.005-.004-.169-.048-.169-.048l-1.278-.358c.376-.355.697-.659.989-.917.699-.626 1.473-.884 1.924-.913.329-.02.906.008 1.142.177.01-.002.027-.027.027-.027-.63-.543-1.175-.614-1.624-.614-.441 0-1.153.144-2.022.82-.356.276-.815.738-1.297 1.225 0-.002-.648-.198-.648-.198l-.157-.05-.679-.208c.015 0 .387-.368.387-.368.458-.45.892-.876 1.23-1.163 1.226-1.038 1.998-1.173 2.536-1.175.587-.002 1.055.12 1.388.362.01-.002.025-.023.025-.023-.689-.626-1.183-.826-2.04-.834-.749-.004-1.647.414-2.524 1.186" transform="translate(0 4)"/>
                            <g transform="translate(0 4) translate(39.31 47.27)">
                                <mask id="ientlzkbih" fill="#fff">
                                    <use xlink:href="#veky0sjjpg"/>
                                </mask>
                                <path fill="#1D1D1B" d="M.765 4.077S5.248.394 16.568.394c8.53 0 13.642 2.74 23.619 2.74 8.973 0 14.96-3.1 14.96-3.1S49.889 4.16 39.336 4.16c-10.554 0-13.918-2.777-24.346-2.777C4.566 1.384.765 4.077.765 4.077" mask="url(#ientlzkbih)"/>
                            </g>
                        </g>
                    </g>
                </g>
            </g>
        </g>
    </g>
</svg>
