<svg xmlns="http://www.w3.org/2000/svg" xmlns:xlink="http://www.w3.org/1999/xlink" width="80" height="60" viewBox="0 0 80 60">
    <defs>
        <path id="j0nii2q6ha" d="M0 0H80V60H0z"/>
        <path id="kkc962k2wc" d="M0.001 0.544L26.786 0.544 26.786 28 0.001 28z"/>
        <path id="xs50wkevke" d="M0 28.456L78.064 28.456 78.064 1 0 1z"/>
    </defs>
    <g fill="none" fill-rule="evenodd">
        <g>
            <g>
                <g transform="translate(-1074 -2056) translate(182 1856) translate(892 200)">
                    <mask id="vm4meowq5b" fill="#fff">
                        <use xlink:href="#j0nii2q6ha"/>
                    </mask>
                    <g mask="url(#vm4meowq5b)" opacity=".9">
                        <g transform="translate(0 16)">
                            <g transform="translate(0 .456)">
                                <mask id="bs47kic51d" fill="#fff">
                                    <use xlink:href="#kkc962k2wc"/>
                                </mask>
                                <path fill="#1D1D1B" d="M4.838 8.952c-.102-.064-.203-.128-.308-.188.181.018.359.046.536.074.404.07.802.164 1.194.29.219.07.433.15.646.236.154.062.308.13.46.202.902.43 1.747 1.03 2.494 1.794.588.602 1.075 1.27 1.462 1.978.39.718.679 1.478.866 2.256-.343-.676-.792-1.31-1.344-1.876-.89-.912-1.952-1.542-3.075-1.892-.211-.068-.426-.128-.64-.174-.227-.512-.521-1-.886-1.448-.111-.134-.227-.268-.351-.394-.326-.332-.681-.616-1.054-.858m3.967-.858c-.08-.174-.153-.35-.22-.528-.071-.186-.135-.374-.196-.562-.127-.418-.224-.844-.295-1.272-.029-.182-.052-.364-.072-.548.059.106.12.212.184.312.236.386.51.748.837 1.082.14.144.285.276.433.404.423.354.882.642 1.364.864.047.224.105.444.17.664.345 1.15.956 2.234 1.843 3.146.557.568 1.173 1.024 1.833 1.376-.746-.186-1.472-.474-2.158-.864-.709-.4-1.374-.906-1.973-1.52-.743-.764-1.329-1.63-1.75-2.554m5.617 13.066c-1.551-.416-3.032-1.18-4.32-2.302-.226-.198-.447-.402-.663-.62-.36-.37-.685-.76-.984-1.164-.105-.156-.216-.308-.325-.46-.322-.448-.666-.882-1.029-1.306-.289-.344-.591-.682-.909-1.008-1.21-1.24-2.537-2.29-3.947-3.142 1.418-.096 2.86.226 4.13.966.564.328 1.095.736 1.573 1.228.355.364.665.758.933 1.172.064.11.13.218.199.324.34.522.732 1.016 1.18 1.478.11.11.229.204.342.312 1.284 1.19 2.806 1.966 4.402 2.298.669.14 1.346.206 2.025.194.345-.004.689-.03 1.03-.072.045-.364.07-.728.073-1.092.01-.712-.059-1.424-.203-2.124-.326-1.578-1.058-3.08-2.168-4.356-.123-.144-.234-.288-.367-.424-.453-.466-.942-.872-1.458-1.222-.062-.042-.126-.082-.193-.122-.44-.292-.86-.632-1.247-1.028-.468-.478-.86-1.01-1.174-1.57-.74-1.314-1.064-2.804-.968-4.276.835 1.444 1.856 2.808 3.065 4.048.33.338.673.654 1.02.962.45.398.908.78 1.382 1.132.096.07.191.142.287.21.422.322.825.678 1.21 1.07.199.204.386.416.568.634 1.051 1.254 1.781 2.692 2.203 4.2.13.462.236.926.306 1.394.61 2.358 1.696 4.608 3.262 6.598 4.42-5.394 4.158-13.452-.792-18.526-5.23-5.362-13.711-5.362-18.942 0-5.23 5.36-5.23 14.054 0 19.416 4.956 5.08 12.827 5.344 18.091.796-2.091-1.728-4.478-2.886-6.97-3.48-.206-.05-.413-.098-.622-.138" mask="url(#bs47kic51d)"/>
                            </g>
                            <path fill="#1D1D1B" d="M41.726 8.523c0 1.306-.923 2.292-2.15 2.292-1.233 0-2.166-.994-2.166-2.312v-.018c0-1.312.925-2.302 2.15-2.302 1.235 0 2.166.998 2.166 2.32v.02zm1.05-.038c0-1.842-1.374-3.234-3.2-3.234-1.801 0-3.216 1.43-3.216 3.252v.02c0 1.844 1.376 3.232 3.2 3.232 1.803 0 3.216-1.428 3.216-3.252v-.018zM46.488 5.361L45.491 5.361 45.491 11.647 49.522 11.647 49.522 10.725 46.488 10.725zM56.32 10.744L53.286 10.744 53.286 8.93 56.25 8.93 56.25 8.026 53.286 8.026 53.286 6.266 56.32 6.266 56.32 5.362 52.291 5.362 52.291 11.646 56.32 11.646z"/>
                            <mask id="5sy1qajqnf" fill="#fff">
                                <use xlink:href="#xs50wkevke"/>
                            </mask>
                            <path fill="#1D1D1B" d="M67.873 11.648L68.872 11.648 68.872 5.362 67.873 5.362zM77.014 8.523c0 1.306-.925 2.292-2.15 2.292-1.234 0-2.166-.994-2.166-2.312v-.018c0-1.312.925-2.302 2.15-2.302 1.233 0 2.166.998 2.166 2.32v.02zm-2.15-3.272c-1.803 0-3.216 1.43-3.216 3.252v.02c0 1.844 1.376 3.232 3.2 3.232 1.801 0 3.216-1.428 3.216-3.252v-.018c0-1.842-1.376-3.234-3.2-3.234zM64.985 8.18h-.9c-.197-.02-.384-.063-.566-.13-.111-.047-.209-.093-.302-.149l-.671.688c.074.056.158.114.243.166l.014.008c.203.124.42.224.64.298.156.054.312.092.466.118l.11.018.004.112v1.018l-.055.04c-.406.296-.952.466-1.497.466-1.276 0-2.165-.956-2.165-2.33v-.018c0-1.268.926-2.302 2.066-2.302l.07.002c.033 0 .068.002.117.006.049.002.108.008.172.014.343.032.884.122 1.372.35v-.92c-.49-.264-1.02-.382-1.684-.382-1.776 0-3.167 1.428-3.167 3.25v.02c0 1.904 1.31 3.232 3.182 3.232 1.183 0 2.037-.522 2.55-.966V8.18zM34.005 11.224v-.786c-.554.26-1.175.338-1.5.362l-.037.004c-.055.004-.102.006-.133.006-.04.002-.074.006-.113.006-1.198 0-2.104-.994-2.104-2.312v-.018c0-1.312.906-2.304 2.104-2.304h.004s.932 0 1.728.374V5.69c-.423-.254-.967-.438-1.723-.438-1.803 0-3.163 1.398-3.163 3.252v.018c0 1.814 1.37 3.234 3.119 3.234.71 0 1.285-.166 1.818-.532M43.155 13.759L42.41 13.759 42.41 18.457 45.423 18.457 45.423 17.769 43.155 17.769zM39.504 16.47c0 .866-.44 1.36-1.207 1.36-.771 0-1.214-.508-1.214-1.396v-2.672h-.745v2.708c0 1.31.71 2.062 1.945 2.062 1.25 0 1.967-.768 1.967-2.104v-2.666h-.746v2.708zM47.419 18.456L48.164 18.456 48.164 13.76 47.419 13.76zM53.816 17.132L51.268 13.76 50.566 13.76 50.566 18.456 51.297 18.456 51.297 14.99 53.918 18.456 54.548 18.456 54.548 13.76 53.816 13.76zM58.121 16.144l.642-1.546.64 1.546H58.12zm.299-2.418l-2.016 4.73h.759l.68-1.644h1.837l.681 1.644h.786l-2.015-4.73h-.712zM68.821 18.456L69.567 18.456 69.567 13.76 68.821 13.76zM75.653 16.123c0 .976-.69 1.714-1.606 1.714-.924 0-1.62-.744-1.62-1.728v-.014c0-.98.69-1.72 1.605-1.72.925 0 1.621.746 1.621 1.734v.014zm-1.606-2.446c-1.35 0-2.405 1.07-2.405 2.432v.014c0 1.376 1.028 2.416 2.39 2.416 1.348 0 2.404-1.066 2.404-2.43v-.014c0-1.376-1.027-2.418-2.389-2.418zM65.949 15.3c0 .296-.13.532-.375.682-.166.1-.38.154-.62.154H63.72v-1.678h1.228c.109 0 .214.01.31.028.347.068.576.258.658.55.021.078.033.162.033.25v.014zm.38-1.066c-.103-.104-.23-.194-.376-.266-.266-.13-.582-.198-.939-.198h-2.037v4.698h.743V16.804H64.815l.021.07c.149.494.44.914.845 1.216.238.174.506.302.796.378.075.02.153.036.23.048v-.728c-.196-.052-.378-.142-.538-.266-.242-.186-.427-.446-.54-.75l-.037-.098.097-.03c.656-.218 1.019-.712 1.019-1.39v-.014c0-.258-.057-.494-.164-.704-.059-.112-.13-.214-.215-.302zM33.224 17.806c-.041.004-.076.004-.1.006l-.084.004c-.891 0-1.564-.738-1.564-1.718v-.014c0-.978.673-1.714 1.564-1.714h.002s.695 0 1.286.278v-.642c-.314-.19-.72-.326-1.282-.326-1.34 0-2.351 1.038-2.351 2.418v.012c0 1.348 1.019 2.404 2.32 2.404.527 0 .954-.124 1.352-.396v-.582c-.413.192-.872.25-1.116.268l-.027.002M38.424 21.072h-.702v2.484h.702c.75 0 1.237-.516 1.237-1.236s-.488-1.248-1.237-1.248m0 3.068h-1.33v-3.652h1.33c1.12 0 1.895.788 1.895 1.822s-.775 1.83-1.895 1.83M43.719 21.062L41.704 21.062 41.704 22.012 43.491 22.012 43.491 22.586 41.704 22.586 41.704 23.566 43.747 23.566 43.747 24.14 41.077 24.14 41.077 20.488 43.719 20.488zM47.768 23.244L47.747 23.244 46.633 21.532 46.633 24.14 46.018 24.14 46.018 20.488 46.684 20.488 47.768 22.214 48.853 20.488 49.519 20.488 49.519 24.14 48.894 24.14 48.894 21.522zM52.138 21.013c-.709 0-1.202.58-1.202 1.294 0 .716.505 1.306 1.212 1.306.708 0 1.201-.578 1.201-1.294 0-.716-.503-1.306-1.211-1.306m0 3.19c-1.095 0-1.858-.85-1.858-1.884 0-1.032.773-1.896 1.868-1.896 1.094 0 1.859.852 1.859 1.884 0 1.036-.775 1.896-1.87 1.896M61.09 21.062L59.074 21.062 59.074 22.012 60.861 22.012 60.861 22.586 59.074 22.586 59.074 23.566 61.115 23.566 61.115 24.14 58.448 24.14 58.448 20.488 61.09 20.488zM61.86 20.488L62.486 20.488 62.486 23.556 64.359 23.556 64.359 24.14 61.86 24.14zM65.048 24.14L65.672 24.14 65.672 20.488 65.048 20.488zM68.169 21.228l-.611 1.462h1.225l-.614-1.462zm1.869 2.912h-.664l-.359-.88h-1.687l-.365.88h-.642l1.567-3.68h.581l1.569 3.68zM57.077 21.677c0 .23-.1.412-.29.53-.13.078-.298.118-.483.118h-.913v-1.302h.911c.084 0 .164.008.238.022.271.052.449.2.511.426.018.062.026.128.026.194v.012zm.296-.828c-.08-.08-.18-.15-.292-.208-.207-.1-.451-.154-.728-.154h-1.585v3.648h.623v-1.29h.806l.017.054c.113.384.342.71.658.944.183.136.392.236.616.294.057.014.117.028.178.038v-.566c-.15-.042-.293-.11-.416-.208-.189-.144-.333-.346-.421-.582l-.03-.076.077-.024c.509-.168.79-.55.79-1.08v-.01c0-.2-.043-.384-.127-.546-.045-.088-.1-.166-.166-.234zM26.968 22.677h.285c.14 0 .234-.022.283-.064.049-.042.074-.098.074-.166 0-.046-.012-.084-.033-.12-.025-.034-.06-.062-.101-.078-.045-.018-.123-.028-.239-.028h-.269v.456zm-.238.848V22.02h.506c.173 0 .296.014.372.04.078.028.139.076.186.148.044.068.068.142.068.22 0 .11-.04.206-.115.288-.076.082-.176.126-.305.136.053.022.094.048.127.08.059.058.13.158.217.298l.18.296h-.291l-.131-.238c-.104-.188-.186-.304-.248-.35-.043-.036-.107-.052-.19-.052h-.138v.64h-.238zm.6-1.942c-.192 0-.38.05-.563.15-.18.102-.322.244-.423.432-.104.188-.154.384-.154.586 0 .202.05.394.152.578.097.186.24.33.421.432.18.104.37.156.566.156.197 0 .385-.052.568-.156.178-.102.32-.246.42-.432.099-.184.15-.376.15-.578 0-.202-.051-.398-.154-.586-.1-.188-.244-.33-.424-.432-.183-.1-.37-.15-.56-.15zm0-.232c.23 0 .452.06.67.182.219.118.389.292.51.516.123.224.183.458.183.702 0 .24-.058.472-.18.696-.12.222-.288.394-.505.518-.216.122-.443.182-.679.182-.238 0-.464-.06-.679-.182-.216-.124-.384-.296-.505-.518-.121-.224-.182-.456-.182-.696 0-.244.063-.478.184-.702.123-.224.292-.398.511-.516.218-.122.44-.182.671-.182z" mask="url(#5sy1qajqnf)"/>
                        </g>
                    </g>
                </g>
            </g>
        </g>
    </g>
</svg>
