<svg xmlns="http://www.w3.org/2000/svg" xmlns:xlink="http://www.w3.org/1999/xlink" width="90" height="60" viewBox="0 0 90 60">
    <defs>
        <path id="42rx6wz1sa" d="M0 0H90V60H0z"/>
        <path id="rw8jhjj6qc" d="M0 0.693L20.622 0.693 20.622 31.39 0 31.39z"/>
    </defs>
    <g fill="none" fill-rule="evenodd">
        <g>
            <g>
                <g transform="translate(-574 -2056) translate(182 1856) translate(392 200)">
                    <mask id="1dmg5wf8tb" fill="#fff">
                        <use xlink:href="#42rx6wz1sa"/>
                    </mask>
                    <g mask="url(#1dmg5wf8tb)">
                        <g>
                            <g transform="translate(0 9) translate(0 1.26)">
                                <mask id="0nrkapqtgd" fill="#fff">
                                    <use xlink:href="#rw8jhjj6qc"/>
                                </mask>
                                <path fill="#1D1D1B" d="M8.928 13.225h4.4l-.733 5.633h-4.4l.733-5.633zM10.87 31.39h.327c.674-1.757 2.09-2.995 3.945-3.434l.776-5.582h3.967v-3.516h-3.494l.733-5.633h3.498V9.707h-2.981L18.849.693h-3.795l-1.208 9.014H9.447L10.654.693h-3.84L5.608 9.707H1.294v3.518H5.09l-.736 5.633H0v3.516h3.883l-.39 2.804c1.109-.576 2.437-.896 3.962-.937l.268-1.867h4.398l-.634 4.567-.616 4.45z" mask="url(#0nrkapqtgd)"/>
                            </g>
                            <path fill="#1D1D1B" d="M24.08 17.76h.933c1.333 0 2.532-.444 2.532-2.018 0-1.571-1.16-2.116-2.532-2.116h-.932v4.133zm-2.663-6.266h3.37c2.892 0 5.538.853 5.538 4.094 0 3.165-2.267 4.309-5.12 4.309h-1.124v5.142h-2.664V11.494zM37.387 19.063c-.077-1.263-.65-2.35-2.076-2.35-1.426 0-2.15 1.01-2.263 2.35h4.339zm1.714 5.412c-.933.527-2 .8-3.372.8-3.235 0-5.12-1.903-5.12-5.185 0-2.891 1.504-5.279 4.549-5.279 3.636 0 4.665 2.542 4.665 6.037h-6.775c.113 1.61 1.218 2.524 2.797 2.524 1.236 0 2.304-.466 3.256-1.011v2.114zM47.266 17.141c-.781-.273-1.352-.43-2.284-.43-.686 0-1.505.255-1.505 1.11 0 1.59 4.435.582 4.435 4.192 0 2.329-2.036 3.262-4.11 3.262-.973 0-1.96-.176-2.895-.43l.153-2.134c.8.409 1.635.66 2.512.66.648 0 1.676-.251 1.676-1.224 0-1.958-4.435-.62-4.435-4.229 0-2.155 1.846-3.106 3.845-3.106 1.2 0 1.978.193 2.779.367l-.17 1.962zM55.87 17.199c-.457-.213-.953-.37-1.734-.37-1.58 0-2.589 1.285-2.589 3.165 0 1.843.858 3.263 2.647 3.263.723 0 1.522-.274 1.959-.47l.116 2.157c-.743.232-1.505.332-2.552.332-3.215 0-4.833-2.236-4.833-5.282 0-2.893 1.673-5.183 4.739-5.183 1.028 0 1.77.115 2.474.33l-.228 2.058zM61.009 23.372c.78 0 1.39-.35 1.788-.892.42-.564.533-1.28.533-2.06h-1.103c-1.142 0-2.836.193-2.836 1.728 0 .855.703 1.224 1.618 1.224zm-2.99-7.804c.99-.466 2.324-.757 3.41-.757 2.986 0 4.224 1.263 4.224 4.211v1.283c0 1.007.02 1.765.038 2.505.017.755.057 1.454.113 2.23H63.56c-.098-.526-.098-1.184-.115-1.494h-.039c-.59 1.105-1.865 1.73-3.027 1.73-1.731 0-3.426-1.07-3.426-2.974 0-1.491.705-2.366 1.676-2.852.97-.484 2.225-.582 3.291-.582h1.41c0-1.61-.703-2.155-2.208-2.155-1.084 0-2.17.43-3.028 1.087l-.074-2.232zM10.823 39.88c-.972.234-2.02.427-3.029.427-4.303 0-7.29-2.192-7.29-6.774 0-4.637 2.779-7.238 7.29-7.238.877 0 2.037.174 3.008.56l-.19 2.292c-1.008-.581-1.922-.716-2.875-.716-2.74 0-4.454 2.134-4.454 4.906 0 2.759 1.675 4.834 4.511 4.834 1.047 0 2.286-.232 2.913-.562l.116 2.27zM16.664 38.29c1.961 0 2.474-1.787 2.474-3.458 0-1.53-.798-2.97-2.474-2.97-1.656 0-2.455 1.476-2.455 2.97 0 1.65.514 3.458 2.455 3.458m0-8.444c2.913 0 5.14 1.999 5.14 5.3 0 2.87-1.886 5.16-5.14 5.16-3.236 0-5.12-2.29-5.12-5.16 0-3.301 2.227-5.3 5.12-5.3M23.42 30.08h2.42v1.357h.036c.8-1.144 1.886-1.592 3.219-1.592 2.322 0 3.331 1.668 3.331 3.923v6.306h-2.552v-5.338c0-1.22-.017-2.874-1.655-2.874-1.846 0-2.248 2.04-2.248 3.32v4.892h-2.55V30.08zM34.901 26.528L42.287 26.528 42.287 28.662 37.566 28.662 37.566 32 42.059 32 42.059 34.136 37.566 34.136 37.566 40.073 34.901 40.073zM52.81 40.074h-2.416v-1.357h-.038c-.78.969-1.884 1.59-3.219 1.59-2.319 0-3.33-1.67-3.33-3.92V30.08h2.55v5.336c0 1.222.022 2.874 1.659 2.874 1.846 0 2.244-2.039 2.244-3.321v-4.89h2.55v9.995zM55.893 31.98h-1.882V30.08h1.882v-1.997l2.553-.836v2.833h2.265v1.902h-2.265v4.658c0 .853.228 1.65 1.197 1.65.46 0 .896-.096 1.162-.272l.077 2.058c-.535.156-1.122.232-1.885.232-1.999 0-3.104-1.26-3.104-3.24V31.98zM71.084 40.074h-2.416v-1.357h-.038c-.78.969-1.885 1.59-3.217 1.59-2.323 0-3.332-1.67-3.332-3.92V30.08h2.548v5.336c0 1.222.023 2.874 1.659 2.874 1.848 0 2.246-2.039 2.246-3.321v-4.89h2.55v9.995zM73.388 30.08h2.265v2.268h.04c.111-.929 1.159-2.503 2.68-2.503.25 0 .518 0 .784.079v2.622c-.23-.137-.687-.217-1.143-.217-2.076 0-2.076 2.64-2.076 4.076v3.669h-2.55V30.08zM84.508 38.29c1.96 0 2.474-1.787 2.474-3.458 0-1.53-.799-2.97-2.474-2.97-1.657 0-2.457 1.476-2.457 2.97 0 1.65.515 3.458 2.457 3.458m0-8.444c2.912 0 5.137 1.999 5.137 5.3 0 2.87-1.882 5.16-5.137 5.16-3.237 0-5.12-2.29-5.12-5.16 0-3.301 2.226-5.3 5.12-5.3" transform="translate(0 9)"/>
                        </g>
                    </g>
                </g>
            </g>
        </g>
    </g>
</svg>
