<svg xmlns="http://www.w3.org/2000/svg" xmlns:xlink="http://www.w3.org/1999/xlink" width="60" height="60" viewBox="0 0 60 60">
    <defs>
        <path id="yx6daofcja" d="M0 0H60V60H0z"/>
        <path id="z4xch4r1qc" d="M0.047 0.608L43.072 0.608 43.072 42.945 0.047 42.945z"/>
        <path id="s08yolmwne" d="M0 59.393L43.091 59.393 43.091 1.876 0 1.876z"/>
    </defs>
    <g fill="none" fill-rule="evenodd">
        <g>
            <g>
                <g transform="translate(-375 -1956) translate(182 1856) translate(193 100)">
                    <mask id="hpcat7rbrb" fill="#fff">
                        <use xlink:href="#yx6daofcja"/>
                    </mask>
                    <g mask="url(#hpcat7rbrb)">
                        <g transform="translate(8)">
                            <g transform="translate(0 1.268)">
                                <mask id="9d0is1ekfd" fill="#fff">
                                    <use xlink:href="#z4xch4r1qc"/>
                                </mask>
                                <path fill="#1D1D1B" d="M30.606 26.401c.094-.16.167-.249.193-.348.012-.043-.074-.11-.116-.165-.071.082-.16.157-.201.251-.02.041.053.124.124.262zM20.075 15.18c-.144-.098-.226-.201-.302-.195-.073.005-.195.127-.19.189.006.073.119.182.197.195.07.01.155-.096.295-.19zm-.004.67c-.105.132-.21.213-.199.267.02.092.117.169.18.251.069-.06.191-.12.191-.18 0-.091-.086-.18-.172-.337zM19.55 13.9c-.1.137-.207.22-.197.289.01.079.122.144.19.217.068-.067.187-.127.194-.2.008-.075-.092-.16-.187-.306zm.677 10.408l-.134-.022c-.14.292-.28.587-.417.88.197-.183.375-.38.528-.593.044-.062.017-.175.023-.265zm12.9-7.824c-.458.165-.523.253-.465.551l.314.075c.047-.197.095-.392.15-.626zm-.836 16.503c.032-.016.067-.031.1-.048l-.577-1.09-.078.038c-.065.484.398.72.555 1.1zM14.5 6.386c.004.268.117.529-.09.782-.036.041.048.187.094.277.015.028.119.049.138.028.065-.065.174-.167.157-.226-.08-.293-.197-.574-.299-.861zm16.546 19.168c.213.01.427-.191.408-.35-.008-.072-.092-.173-.163-.19-.15-.04-.361.158-.352.326.004.085.08.163.107.214zm-8.498-7.408l.507.583c.087-.172.167-.334.264-.529-.273-.018-.5-.035-.77-.054zm9.615-1.134c-.059.247-.116.429-.141.616-.008.053.067.16.113.165.069.008.195-.035.212-.086.061-.178.09-.37.14-.607l-.197.121-.127-.21zm.484.16l-.06-.001c-.047.191-.108.38-.129.574-.008.052.092.144.159.165.048.015.166-.045.182-.094.053-.174.078-.358.109-.54.002-.008-.023-.02-.085-.071-.015.056-.032.114-.059.204-.061-.126-.088-.182-.117-.236zm-.541 2.04c-.036.305-.205.58.02.878.294-.195.277-.497.334-.791l-.354-.086zm-.442.788c.28-.227.285-.52.333-.823l-.333-.073c-.042.31-.237.58 0 .896zm-13.66 9.5l.577-.203-.006-.096c-.157-.105-.314-.214-.501-.341-.107.378-.201.716-.31 1.11.155-.137.252-.225.358-.32-.042-.05-.079-.098-.119-.15zm14.366 4.011c-.021-.427-.377-.65-.578-.963-.007.197.008.384.04.572.06.361.092.384.538.392zm-4.178-4.888c-.086-.06-.197-.198-.325-.215-.197-.027-.314.125-.314.32 0 .19.122.306.306.308.205.002.299-.139.333-.413zm-9.05-9.427l.07-.03c0-.2.01-.401-.004-.602-.005-.084-.065-.236-.092-.234-.14.007-.29.032-.407.1-.044.027-.046.213.002.278.122.177.285.329.43.488zm-15.556 7.66c-.051-.036-.137-.141-.233-.15-.205-.021-.507.29-.48.5.013.09.13.22.218.234.22.04.5-.27.495-.585zm28.455-7.78l.258-1.142-.352-.053-.254 1.105.348.09zm.346-1.103c-.086.381-.166.741-.254 1.123l.361.09.26-1.138-.367-.075zm1.089-2.756c-.324-.105-.354-.107-.4.049-.124.403-.233.81-.346 1.215l.076.052c.134-.127.32-.234.39-.39.129-.288.188-.605.28-.926zm-21.1 21.188c.353-.405.783-.355 1.227-.214l.079-.797-.886.373c.007.013.015.028.02.043l.424.03c-.712.094-.89.2-.863.565zm15.156-8.145c-.478-.194-.83-.748-1.492-.373.438.243.85.474 1.259.703l.233-.33zm5.456-13.184c-.126.038-.27.044-.287.09-.195.585-.371 1.176-.55 1.754l.36.067.477-1.91zm-22.224 26.73l.052-.078c-.178-.12-.358-.238-.536-.36-.637-.43-.77-.366-.847.4 0 .007.005.016.011.038h1.32zM29.37 19.543c.023.018.046.034.071.05.044-.028.094-.048.128-.084.706-.803 1.41-1.603 2.112-2.407.048-.055.062-.14.09-.209l-.06-.035c-.072.062-.154.114-.217.185-.641.715-1.282 1.431-1.915 2.153-.088.101-.14.23-.209.347zm7.2-7.82c-.877-.382-2.98 1.21-3.398 2.538.093-.019.195-.049.239-.116.159-.239.28-.497.444-.732.556-.808 1.281-1.396 2.278-1.608.122-.025.245-.047.436-.083zM4.18 30.842c.157.441.461.692.884.833.188.062.33-.002.375-.148.025-.075-.092-.212-.172-.295-.075-.078-.218-.105-.276-.189-.22-.328-.396-.384-.81-.2zm21.74 5.73c-.004.428.34.79.748.786.394-.004.739-.366.739-.776 0-.418-.335-.763-.74-.763-.416 0-.743.331-.747.753zM14.956 5.91c-.02-.133-.033-.239-.05-.344-.021-.142-.069-.27-.249-.247-.178.022-.327.107-.302.306.023.172.084.343.145.506.086.227.192.448.282.673.028.073.015.176.065.225.074.077.193.173.283.165.183-.015.122-.16.072-.264-.118-.25-.252-.492-.363-.745-.046-.105-.186-.277.117-.275zM35.86 27.753c-.172.051-.29.094-.413.119-.43.091-.6.386-.407.774.057.116.214.259.325.259.105 0 .27-.152.308-.268.092-.274.124-.567.187-.884zM15.4 4.888c-.02-.01-.042-.019-.063-.028-.103.176-.308.361-.29.526.051.509.18 1.011.296 1.512.017.07.14.116.212.172.056-.082.163-.17.153-.242-.09-.648-.202-1.293-.308-1.94zm6.292 27.92c.435.167.879.34 1.345.52.048-.606-.178-.99-.66-1.243l-.685.723zM16.85 29.27c-.236-.067-.276.055-.318.193-.283.917-.57 1.832-.857 2.747-.167.527-.44.992-.86 1.367-.047.041-.089.09-.135.133.061.004.102-.013.136-.037.075-.05.15-.103.216-.162.507-.427.773-.993.978-1.6.248-.732.503-1.46.748-2.193.05-.144.063-.3.092-.448zm1.95 1.39l.741-.779c-.187-.133-.382-.275-.58-.414-.31-.215-.31-.215-.549.092.062.049.123.1.184.15-.002.023-.004.045-.008.067-.12-.005-.24-.013-.428-.022-.052.052-.15.154-.264.274.3.208.585.409.905.632zm9.593-1.814c.543.004.815-.34 1.065-.725.215-.324-.126-.448-.237-.673.157-.205.32-.415.486-.634.086.071.15.122.21.174.111.094.21.092.299-.03.061-.088.136-.172.172-.27.023-.06-.011-.142-.019-.213-.069.022-.143.031-.203.069-.055.036-.092.098-.134.146-.377-.268-.377-.268-.654.094-.1.128-.187.264-.298.38-.203.209-.207.39.011.595.061.058.115.204.082.264-.135.253-.315.488-.635.531-.187.026-.19.122-.145.293zm-10.574-1.824c-.748 1.093-.881 1.18-2.177 1.654-.713.26-1.411.557-2.112.847-.164.068-.31.178-.464.27 1.216-.45 2.437-.862 3.644-1.312.314-.118.602-.325.87-.533.247-.19.427-.451.502-.776l-.263-.15zm2.015 4.37l.778-.738-.876-.636-.75.77.848.605zm13.06-16.467c.331.045.676.045.987.146.565.18.976-.088 1.45-.37-.095-.02-.143-.033-.193-.043-.537-.08-1.075-.157-1.61-.242-.471-.075-.563-.007-.634.509zM17.62 28.276c-.637.239-1.24.47-1.847.69-.382.14-.778.244-1.155.398-.51.206-1.012.437-1.507.677-.096.047-.148.182-.219.277.021.015.044.028.067.045.245-.13.479-.294.739-.388.85-.305 1.712-.577 2.563-.88.389-.14.77-.307 1.139-.492.105-.055.153-.222.22-.327zM33.493 14.28c.214.103.356.103.494-.148.606-1.116 1.457-1.947 2.796-2.159.031-.003.056-.033.09-.056-.924-.425-2.871.94-3.38 2.363zM19.736 9.489c-.231.32-.52.499-.878.534-1.033.105-1.886-.234-2.554-1.016-.082-.095-.168-.185-.252-.28-.029.018-.058.034-.084.053.024.08.034.173.082.24.42.587.95 1.043 1.664 1.27.57.18 1.133.122 1.684-.058.396-.13.499-.364.338-.743zm5.584 17.422c-.105-.069-.193-.127-.28-.187-.85-.58-1.728-1.121-2.444-1.87-.231-.24-.45-.487-.679-.729-.051-.052-.128-.082-.258-.167.038.128.044.173.065.209.05.084.101.168.163.243.75.942 1.664 1.71 2.613 2.449.266.206.5.259.82.052zm6.602-6.76c-.158 1.05-.32 2.105-.48 3.16-.015.115-.042.231-.038.344.01.16.044.322.076.54.26-.276.775-3.09.79-4.003l-.348-.042zm-14.929 4.887c.37.053.698.104 1.027.141.071.01.169-.01.218-.054.3-.268.593-.548.882-.83.037-.035.062-.114.048-.159-.076-.247-.633-.434-.836-.266-.453.379-.89.775-1.339 1.168zM3.33 30.65c.029.145.046.29.086.431.077.274.25.475.528.563.18.058.356-.011.38-.191.014-.096-.124-.218-.204-.319-.057-.071-.138-.124-.197-.195-.092-.11-.16-.24-.26-.341-.088-.088-.218-.133-.304-.22-.155-.159-.31-.28-.559-.271-.314.01-.337.228-.377.444-.04.216-.107.431-.103.645.002.103.122.25.226.29.076.03.246-.048.312-.129.174-.22.313-.465.472-.707zM14.01 7.53c-.128.091-.273.165-.37.277-.25.287-.385.626-.368 1.007.02.412-.08.791-.283 1.15-.054.093-.082.202-.13.326.779-.201 1.695-1.707 1.59-2.582-.486.242-.477.77-.764 1.13l.326-1.308zm17.434 12.5c-.088.475-.184.936-.256 1.4-.132.852-.255 1.703-.37 2.558-.017.134.031.274.056.456.31-.195.365-.444.406-.7.086-.57.168-1.141.254-1.713.096-.647.193-1.296.29-1.937-.125-.02-.234-.04-.38-.064zm-9.259 11.85l-1.41-1.125c-.249.28-.47.535-.708.803l1.414 1.055.704-.733zm-9.118-2.473c1.08-.416 2.168-.82 3.243-1.26.283-.116.545-.322.767-.538.205-.197.34-.461.53-.726-.235-.1-.404-.174-.581-.25-.43.888-1.15 1.35-2.053 1.627-.557.17-1.081.446-1.613.693-.193.09-.323.255-.293.454zm21.516-1.723l.087.028c.038-.032.09-.06.116-.1.494-.785.991-1.57 1.475-2.362.107-.176.044-.324-.168-.392-.147-.045-.291-.099-.44-.137-.327-.082-.44-.005-.513.325-.14.632-.285 1.264-.42 1.897-.054.246-.09.493-.137.741zm-31.291.163c-.094.068-.192.12-.264.195-.685.731-1.368 1.464-2.045 2.203-.077.083-.136.193-.169.3-.023.075.012.165.021.25.077-.012.16-.008.224-.036.09-.04.176-.098.249-.161.501-.448 1.012-.887 1.49-1.358.247-.242.45-.53.643-.815.14-.203.1-.407-.15-.578zm9.86 11.578c-.188.499-.312.99-.551 1.422-.207.374 0 .616.132.903.015.032.069.066.105.066.455.004.909.002 1.42.002-.385-.83-.741-1.601-1.106-2.393zm-.605-4.787c.423-.256.807-.525 1.226-.735.905-.455 1.471-1.153 1.722-2.116.176-.681.394-1.35.58-2.027.023-.083-.027-.263-.071-.272-.103-.023-.249 0-.33.062-.07.054-.081.187-.108.288-.218.807-.425 1.617-.656 2.421-.127.44-.402.793-.79 1.054-.458.303-.913.615-1.378.907-.157.1-.239.205-.195.418zm.825 3.825l.223-2.191c-.155-.025-.27-.05-.384-.06-.494-.046-.72.15-.828.62-.125.536-.04 1.125-.412 1.601-.017.021-.002.066-.002.143.435-.461.9-.341 1.403-.113zm6-13.473c.28-.456.52-.893.433-1.465-.136-.885-.3-1.78-.298-2.67.002-1.115.155-2.231.252-3.347.035-.408-.082-.545-.516-.482.042 2.644.086 5.294.13 7.964zm14.098-1.198c-.31.026-.76.061-1.21.104-.171.017-.32.107-.267.29.027.093.169.17.278.219.084.037.195.031.292.03 1.225-.036 2.447-.072 3.627.337.182.064.259-.056.318-.202.065-.154-.004-.237-.136-.295-.132-.058-.264-.116-.4-.163-.765-.259-1.563-.283-2.502-.32zM14.382 35.177c-.029-.022-.056-.045-.083-.067-.124.105-.334.191-.36.315-.19.911-.202 1.835-.085 2.756.034.272.097.542.176.804.025.085.141.207.206.201.096-.007.232-.1.262-.184.077-.223.16-.467.144-.695-.069-1.045-.172-2.087-.26-3.13zm-6.088-3.343c-.403-.022-.809-.043-1.212-.073-.175-.011-.259.049-.308.218-.228.783-.47 1.563-.703 2.347-.032.11-.055.225-.09.362.903-.416 2.197-1.69 2.313-2.854zm8.462-5.242c-1.446-.505-3.35.645-3.482 2.036.746-.277 1.511-.542 2.26-.85.554-.224.948-.637 1.222-1.186zM23.132 28l.034.103c.609-.088 1.244-.098 1.822-.277 1.595-.5 3.171-1.066 4.75-1.615.157-.054.298-.169.43-.272.046-.034.08-.139.06-.182-.024-.046-.123-.088-.18-.078-.169.028-.335.078-.498.129-1.603.484-3.21.953-4.802 1.468-.558.18-1.078.48-1.616.724zM15.7 26.105l.02.085c.146.026.294.067.439.073.545.017 1.052.15 1.528.414.381.212.398.204.695-.092.266-.266.526-.538.786-.81.132-.138.256-.283.385-.425l-.033-.03-.43.264.103-.941c-.15.034-.241.086-.312.157-.191.191-.365.398-.564.58-.061.056-.195.095-.268.069-.717-.263-1.38-.268-1.944.332-.116.126-.27.217-.405.324zm10.613 9.503c-.903-1.091-2.077-1.928-3.16-2.87-.008.12.01.222.027.325.055.351-.01.41-.35.317-.167-.045-.33-.1-.473-.142l3.375 3.026c.172-.195.365-.41.581-.656zm-.298 1.774c-.18 1.443-.364 2.925-.551 4.441h.633c.383-.002.383-.002.434-.361.108-.749.22-1.497.316-2.247.07-.56.117-1.125.17-1.633-.36-.071-.685-.135-1.002-.2zm-9.387-26.79l1.593 3.084c.03.004.06.005.09.01-.025-.634.411-.503.811-.475-.178-.293-.33-.548-.484-.8.021-.029.042-.055.063-.081.165.069.335.13.498.21.13.065.222.082.363-.021.104-.077.295-.079.438-.056.127.022.236.131.358.187.184.083.348.073.48-.172-.31-.188-.61-.38-.922-.555-.302-.167-.438-.409-.42-.745.009-.148.001-.296.001-.452-1.188.362-1.618.344-2.87-.135zm14.996 7.087c-.05.038-.084.053-.103.079-.593.731-1.196 1.455-1.766 2.201-.232.306-.352.69-.228 1.065.22.656.488 1.297.746 1.94.03.08.123.138.238.261.09-.253.177-.437.216-.63.1-.49.168-.982.258-1.472.209-1.136.42-2.27.639-3.444zm-19.027 16.28c.65-.423 1.274-.76 1.762-1.286.017-.018.032-.04.046-.065.422-.797.621-1.661.778-2.535.044-.248-.092-.364-.32-.27-.587.244-1.17.504-1.732.804-.14.075-.25.306-.274.48-.082.596-.122 1.2-.176 1.8-.03.334-.054.666-.084 1.073zm19.027-1.385c-1.108 1.566-2.849 2.269-4.392 3.19.107.181.244.344.304.532.055.184.034.394.048.613.097-.045.181-.077.256-.12.846-.486 1.712-.94 2.527-1.466.582-.373 1.1-.84 1.636-1.277.116-.094.197-.23.357-.428-.558.075-.633-.22-.667-.558-.015-.165-.046-.327-.07-.486zM6.697 38.477c-.658 1.057-.777 2.17-.788 3.345.975 0 1.917.001 2.856-.008.055 0 .138-.077.16-.135.096-.25.179-.504.255-.76.082-.262.006-.476-.252-.603-.266-.131-.538-.253-.808-.379-.652-.296-1.203-.69-1.423-1.46zm15.922-10.982c.322-.045.913-.128 1.5-.224.107-.016.203-.095.304-.148-.067-.086-.122-.183-.203-.257-.715-.654-1.434-1.303-2.152-1.953-.147-.131-.287-.272-.438-.398-.138-.114-.245-.084-.363.056-.394.464-.8.92-1.211 1.367-.258.284-.276.426-.008.707.622.653 1.422.848 2.571.85zM17.014 1.852c.013.026.029.053.044.079-.943.493-1.465 1.33-1.898 2.235-.042.09 0 .22.004.332.098-.049.228-.075.283-.152.215-.296.42-.602.6-.919.935-1.622 3.532-1.52 4.313-.144.021.035.054.065.115.135-.084-.493-.27-.885-.597-1.208l.092-.086.662.79c.034-.025.07-.05.105-.072-.075-.172-.115-.37-.23-.508-.239-.29-.5-.568-.784-.812-.163-.139-.385-.26-.595-.29-.599-.089-1.205-.167-1.81-.175-.608-.007-1.186.156-1.643.593-.32.303-.645.602-.94.926-.195.22-.361.469-.5.725-.081.149-.083.338-.12.509l.095.043c.334-.748.996-1.183 1.595-1.678-.43.528-1.002.954-1.188 1.66.153-.06.275-.151.38-.258.443-.444.865-.911 1.326-1.335.19-.174.458-.262.691-.39zm14.928 22.695c.017.227.026.358.038.491.028.34-.11.576-.417.743-.392.214-.412.304-.195.7.14.247.287.494.442.732.084.128.195.24.292.358.084-.135.218-.262.245-.406.145-.737.264-1.48.383-2.174.116.227.23.526.14.863-.13.478-.265.954-.406 1.466.41.019.855-.13 1.151.304-.72-.204-1.136.028-1.201.654-.032.317.122.557.398.612.27.054.587-.122.647-.402.04-.19.007-.397.007-.609.09.112.176.225.274.349.199-.435.199-.852.084-1.279-.044-.163-.013-.377.061-.534.123-.253.312-.477.463-.72.134-.22.276-.441.37-.677.12-.297.017-.46-.303-.465-.813-.017-1.626-.006-2.473-.006zm-15.75 9.126c-.452.403-.89.785-1.319 1.181-.051.049-.08.156-.072.23.04.372.046.754.155 1.107.302.977.614 1.954.99 2.904.282.709.657 1.384 1.022 2.059.08.148.289.23.44.345.06-.176.184-.354.168-.525-.051-.636-.107-1.277-.239-1.901-.28-1.35-.616-2.687-.916-4.033-.1-.458-.157-.923-.23-1.367zm5.498 8.11c.044.014.068.033.093.033.834.004 1.67.01 2.506-.002.073-.002.186-.105.21-.182.096-.296.173-.6.236-.904.12-.579.184-1.175.35-1.742.123-.412.377-.787.565-1.18.172-.36.06-.801-.259-.996-.051-.032-.222.007-.224.028-.055.377-.329.596-.6.797-.56.407-1.154.772-1.71 1.185-.219.159-.423.37-.548.605-.388.735-.505 1.547-.62 2.357zm10.638-7.428c-.35.272-.668.567-1.031.79-1.177.718-2.365 1.423-3.562 2.107-.297.169-.46.373-.503.698-.123.898-.257 1.794-.377 2.692-.052.383-.083.769-.127 1.181.354 0 .662-.018.968.004.335.025.607-.062.873-.268.377-.294.798-.45 1.31-.394.655.073 1.096-.195 1.205-.744.087-.42.079-.864.06-1.296-.016-.302-.224-.476-.534-.521-.25-.036-.505-.04-.76-.058-.363-.026-.72-.08-1.023-.31-.327-.249-.367-.513-.1-.819.123-.139.272-.264.43-.366.688-.446 1.45-.721 2.253-.896.369-.08.727-.078 1.042.15.1.072.167.186.25.28l.072-.05c-.15-.727-.297-1.454-.446-2.18zM20.165 7.565l.122-.011c.046-.165.115-.328.136-.497.079-.59.138-1.185.209-1.777.051-.445.005-.863-.245-1.257-.195-.307-.343-.646-.54-.954-.103-.161-.243-.319-.403-.424-1.043-.673-2.49-.268-3.013.829-.188.396-.362.8-.743 1.069-.03.022-.053.071-.063.11-.147.585.023 1.041.534 1.39.342.232.54.551.6.945.037.238.144.416.35.543.202.124.314.297.366.533.111.529.467.709.993.52.222-.081.415-.08.62.054.275.184.48.131.664-.145.21-.318.235-.677.158-1.03-.074-.351-.199-.693-.302-1.038.006-.003.014-.01.021-.013l.536 1.153zm.082 2.57l-.08.04c.02.073.044.145.06.22.118.483.25.963.341 1.45.043.222.05.423.268.575.197.14.161.3-.013.466-.079.077-.144.205-.142.31.012 1.174.035 2.347.065 3.521.002.07.079.161.146.199.352.197.752.334 1.06.581.369.296.74.491 1.22.467.017 0 .036.002.054.006.155.035.245-.017.323-.162.207-.384.444-.753.652-1.138.052-.095.07-.236.042-.341-.143-.542-.317-1.076-.455-1.618-.069-.27-.084-.553-.117-.782l.817 2.257 1.11-1.479c-.29-.356-.599-.705-.872-1.08-.349-.472-.775-.75-1.387-.825-.789-.097-1.41-.583-2.04-1.018-.11-.077-.199-.2-.271-.319-.266-.44-.52-.885-.78-1.33zm-4.915-.824c-.107.084-.149.116-.189.15-.792.67-1.259 1.549-1.685 2.458-.165.35-.144.65.086.947 1.266 1.648 2.53 3.298 3.807 4.939.256.326.56.618.899.988 0-.512.002-.94 0-1.365-.004-.428.101-.6.514-.743.232-.078.479-.116.789-.19l-4.22-7.184zm-3.606 16.963c.02.028.035.056.054.086-.551.375-1.06.803-1.381 1.38-.915 1.645-1.774 3.31-1.88 5.235-.04.664-.251 1.266-.66 1.806-.303.4-.575.821-.862 1.232-.036.05-.08.095-.168.199.32-.927.612-1.778.903-2.63-.509.678-1.184 1.116-1.934 1.46-.385.176-.779.331-1.167.506-.09.043-.195.108-.24.191-.173.328-.326.668-.487 1.005-.05.107-.098.216-.147.324l.067.064L7 35.235c-.168.361-.323.72-.5 1.068-.533 1.07-1.013 2.168-1.947 2.993-.28.25-.442.628-.317 1 .126.378.354.725.555 1.117.468-.47.79-.955 1.02-1.504.778-1.867 1.459-3.774 2.496-5.531.204-.347.256-.788.338-1.193.134-.65.14-1.346.373-1.957.381-.996.91-1.937 1.359-2.908.424-.915 1.16-1.433 2.137-1.656 1.323-.304 2.487-.915 3.54-1.75.548-.434 1.12-.841 1.68-1.263.008-.006-.002-.03-.004-.068-1.463-.11-2.928-.225-4.394-.33-.375-.026-.733.025-1.08.197-.693.34-.754 1.003-.957 1.639.315-.058.585-.13.86-.157 1.114-.119 2.254-.059 3.314-.524-.052.058-.105.105-.166.124-.645.204-1.282.445-1.94.593-.689.153-1.399.217-2.036.55-.076.04-.168.093-.202.164-.18.375-.345.76-.475 1.05l1.071-.615zm-2.211 7.087c-.532.704-.815 1.56-1.48 2.164-.081.072-.106.203-.148.31-.054.13-.084.27-.145.397-.257.54-.525 1.075-.78 1.614-.037.083-.068.196-.043.276.23.746.694 1.307 1.427 1.624.337.146.698.176 1.01-.064.29-.229.276-.555.237-.885-.06-.542-.321-.973-.744-1.318-.166-.137-.346-.259-.505-.407-.285-.268-.394-.6-.373-.995.262.268.484.528.74.751.507.44 1.099.688 1.787.664.079-.004.155-.047.232-.071v-.077c-1.232-.053-1.892-.797-2.35-1.774.44 0 .858.013 1.27-.004.68-.031 1.233-.288 1.56-.907.145-.276.306-.546.434-.83.603-1.33.813-2.762 1.087-4.176.16-.833.302-1.662.767-2.398.05-.077.065-.175.105-.287-.11-.008-.184-.026-.25-.015-1.156.215-2.183.678-2.834 1.672-.373.572-.604 1.23-.9 1.85-.173.36-.355.719-.517 1.085-.065.15-.12.313-.134.472-.029.355-.03.71-.037 1.065-.001.133.01.266.023.4.016.187.11.21.251.1.105-.076.207-.157.31-.236zm26.434-19.214c.086-.025.17-.05.257-.072.683-.19 1.308-.465 1.771-1.031.237-.29.519-.548.786-.814.207-.202.423-.394.634-.59-.38.033-.71.125-1.049.189-1.123.21-2.152.643-3.078 1.29-.325.227-.606.536-.847.851-.232.304-.127.488.26.546.528.08 1.06.144 1.588.216-.767.116-1.458.412-2.14.849.058-.109.095-.176.133-.251-.56-.113-.869.204-.782.72l2.22-.645.03.095c-.35.109-.707.205-1.053.328-.826.295-1.425.801-1.603 1.692-.212 1.055-.461 2.105-.643 3.165-.122.718-.193 1.447-.224 2.175-.025.626.182.812.789.84.625.028 1.25.047 1.878.05.725.004 1.056-.28 1.2-.979.147-.706.28-1.413.45-2.113.24-1 .403-2.034 1.199-2.81.116-.116.189-.283.256-.437.195-.45.377-.906.56-1.36.02-.046.023-.099.035-.15-.098.09-.147.195-.22.285-.371.458-.721.936-1.13 1.356-.314.323-.737.474-1.227.418.777-.2 1.45-.812 1.647-1.442-.514.147-1.058.334-1.616.447-.576.116-1.158.09-1.7-.188.48.113.969.221 1.445.045.609-.227 1.215-.47 1.795-.76.545-.271.954-.708 1.203-1.265.08-.184.128-.379.205-.611.444.964.769 1.914.905 2.93.325-1.18.053-2.334-.136-3.54l.256.278c.438-.324.893-.66 1.349-1 .352-.262.589-.603.725-1.02-.15.13-.291.269-.396.428-.21.319-.515.463-.873.589-.357.127-.679.352-1.015.538-.065.038-.123.092-.176.133l-.55-.619c-.267.2-.52.373-.753.569-.084.067-.144.181-.174.286-.088.291-.155.585-.23.878-.025-.008-.05-.013-.076-.02.044-.293.086-.586.137-.938-.683.32-1.318.545-2.022.468zM21.466 41.822c0-.329-.012-.63.002-.929.04-.847.172-1.676.774-2.338.318-.35.68-.663 1.041-.975.603-.521.828-1.205.507-1.92-.199-.438-.476-.87-.813-1.215-1.452-1.494-3.11-2.758-4.783-4-.373-.277-.507-.215-.658.228-.015.05-.032.101-.046.152-.246.841-.547 1.659-1.046 2.392-.048.07-.052.188-.03.272.152.613.342 1.219.47 1.836.147.71.51 1.267 1.1 1.687.671.478 1.048 1.121 1.245 1.909.226.906.52 1.794.794 2.687.025.082.123.2.192.204.397.019.795.01 1.25.01zm-3.298-13.105c.023.034.03.053.044.062.065.047.13.096.197.14 2.871 1.956 5.74 3.914 8.197 6.381.153.154.434.165.618.034.912-.647 1.833-1.283 2.728-1.952.327-.245.604-.559.884-.86.23-.248.26-.554.195-.878-.128-.641-.46-1.19-.79-1.744-.226-.378-.536-.52-.97-.493-.415.023-.832.011-1.25-.002-.325-.011-.573-.14-.657-.487-.016-.066-.085-.135-.148-.17-.323-.179-.648-.359-.981-.518-.398-.192-.817-.26-1.267-.227-.832.062-1.666.123-2.498.118-1.268-.006-2.343-.435-3.068-1.519-.014-.019-.039-.03-.056-.043-.457.277-.503.371-.36.87.06.203.132.414.251.585.216.311.474.594.66.823-.323-.101-.72-.244-1.125-.349-.23-.06-.448.006-.604.23zM4.27 27.177l.016-.057c.375.108.774.17 1.124.335.385.184.724.156 1.053-.052 1.063-.67 1.796-1.564 1.98-2.83.036-.255.084-.51.156-.755.108-.364.266-.402.569-.177.093.068.21.106.317.158.05-.12.138-.24.14-.362.008-.407.011-.817-.03-1.222-.098-.897-.073-1.778.27-2.627.175-.43.343-.863.542-1.28.207-.44.448-.863.702-1.349-.801.414-1.385.992-1.936 1.607.446-.823 1.018-1.538 1.785-2.09.345-.248.658-.563.689-.985.042-.572.023-1.157-.04-1.727-.054-.497-.205-.986-.322-1.52.54.68.613 1.48.812 2.263.31-.852.04-1.934-1.053-2.828.194.105.429.195.534.364.27.427.595.868.695 1.344.327 1.575.418 3.173.18 4.776-.058.384.087.483.46.319.15-.064.282-.162.421-.246.23-.14.457-.289.69-.426.125-.071.26-.13.393-.183.124-.051.253-.089.379-.132-.727.4-1.368.876-1.886 1.498l.067.13c.208-.053.424-.085.623-.162.609-.232 1.202-.5 1.814-.72.472-.168.97-.202 1.47-.13-.116.055-.236.095-.357.134-1.358.46-2.617 1.103-3.736 1.99-.144.114-.226.302-.337.455.188.058.377.175.565.167 1.105-.043 2.21-.112 3.317-.176.342-.02.683-.05 1.025-.077-.931.16-1.87.248-2.804.373-.582.077-1.16.206-1.735.323-.108.022-.203.099-.305.148l.031.093 2.16-.155c-.819.195-1.68.253-2.372.776l.032.135 4.947-.892.016.076c-1.707.327-3.4.698-5.009 1.35.01.04.021.077.03.117 1.717-.394 3.433-.79 5.15-1.183-.14.133-.303.217-.443.328-.406.319-.39.78.044 1.067.147.097.321.174.495.21.345.07.697.12 1.049.159.342.038.484-.077.541-.413.021-.121.03-.247.025-.37-.027-.711-.069-1.422-.088-2.134-.008-.302-.11-.552-.308-.777-1.79-2.036-3.56-4.093-5.383-6.103-.56-.619-.787-1.224-.498-2.008.092-.251.142-.52.217-.799-.792.229-1.544.458-2.304.662-.338.092-.59.283-.74.58-.186.365-.388.735-.48 1.126-.354 1.515-.683 3.038-.987 4.564-.205 1.033-.412 2.059-.92 3-.24.443-.173.583.304.754.313.114.625.238.937.356l-.017.043-.861-.202-.017.064c.373.316.744.635 1.115.952l-.057.066c-.404-.381-.823-.745-1.414-.846.155.13.308.255.463.383-.052.009-.088-.015-.126-.029-.088-.028-.182-.048-.272-.073-.023.09-.075.184-.063.27.028.218.086.431.132.647-.259-.247-.477-.527-.687-.81-.107-.142-.24-.251-.362-.062-.24.373-.474.758-.658 1.16-.118.26-.005.359.29.447.319.094.625.223.938.338-.298.005-.572-.064-.847-.092-.117-.011-.241.071-.362.11.071.107.12.235.217.312.155.12.334.212.51.305.236.124.479.24.718.36-.014.03-.025.06-.038.09-.582-.213-1.17-.42-1.745-.65-.322-.13-.38-.135-.565.172-.407.684-.803 1.375-1.216 2.055-.104.169-.073.268.061.407.618.65 1.161 1.346 1.335 2.252.006.034.044.06.098.13.038-.968-.49-1.634-1.024-2.3.932.486 1.632 1.161 1.954 2.19.046-.118.072-.236.042-.335-.245-.745-.674-1.361-1.378-1.757-.271-.152-.57-.259-.857-.386zm31.885-15.635c.006-.034.011-.067.015-.103-.413-.066-.824-.184-1.24-.19-2.284-.03-4.41.563-6.41 1.622-1.35.717-2.414 1.688-3.047 3.113-.844 1.9-1.776 3.76-2.656 5.642-.222.476-.402.971-.568 1.468-.197.581-.067 1.09.379 1.543.752.763 1.62 1.37 2.537 1.92.329.195.702.216 1.056.101.635-.206 1.28-.405 1.882-.686.926-.431 1.387-1.185 1.393-2.205.005-.769-.222-1.492-.427-2.22-.555-1.972-.164-3.71 1.307-5.192.113-.114.239-.217.367-.317.126-.1.26-.189.392-.285l.05.059c-.033.016-.073.026-.098.05-.727.714-1.33 1.51-1.628 2.492-.048.156-.038.326-.053.491.03.012.06.02.092.032.084-.06.177-.112.248-.184.226-.23.444-.472.668-.705.782-.811 1.536-1.64 1.879-2.743.053-.168.13-.33.195-.497.66-1.687 1.83-2.812 3.667-3.206zM18.784 17.39c-.067.043-.14.08-.203.13-.163.125-.159.287-.086.453.076.175.204.338.403.268.127-.04.23-.198.3-.326.045-.084.008-.21.014-.315.012-.217-.076-.3-.293-.223.02-.049.04-.1.058-.15.11-.304.235-.367.56-.29.295.069.396.208.362.496-.042.372-.088.743-.128 1.114-.023.212-.052.424-.056.638-.002.18.125.294.293.275.063-.007.145-.172.153-.272.011-.165-.038-.333-.046-.502-.008-.186.002-.373.006-.56.183.057.379.091.55.175.552.27 1.091.561 1.642.837.138.071.293.112.43.163.19-.281.179-.508-.007-.744-.712-.904-1.557-1.605-2.734-1.853-.459-.098-.899-.116-1.327.086-.155.073-.331.154-.291.366.04.214.218.238.4.234zm-6.235-6.641c-.254-.405-.11-.746.069-1.104.105-.216.174-.475.17-.713-.019-.752.4-1.252.938-1.69.279-.226.37-.427.252-.759-.063-.174-.134-.35-.228-.511-.292-.494-.422-1.022-.357-1.589.114-1 .407-1.918 1.346-2.499.129-.08.245-.188.345-.302.59-.692 1.37-.99 2.261-.975.597.01 1.194.094 1.789.152.386.037.706.216.98.48.032.032.062.064.097.092.704.546 1.033 1.23.975 2.136-.116 1.831-.212 3.665-.788 5.424-.164.504-.149.845.226 1.243.296.311.461.739.696 1.11.073.116.165.232.278.313.224.165.466.31.704.456.426.262.882.46 1.39.508.433.041.766.247 1.04.57.284.336.575.666.864.997l.27.308c.503-.415.966-.842 1.477-1.206 1.572-1.117 3.357-1.747 5.25-2.098 1.02-.187 2.052-.33 3.08-.1.397.089.772.291 1.14.473.27.133.516.268.843.165.317-.101.662-.122.977-.229.381-.125.745-.303 1.116-.463.065-.028.126-.1.189-.099.17.006.4-.019.492.075.09.094.101.349.036.478-.193.38-.442.735-.67 1.099-.057.09-.11.182-.21.341.545-.167 1.03-.298 1.502-.467.118-.043.195-.2.29-.305.157-.173.297-.366.473-.514.306-.259.666-.154.754.23.128.563.14 1.137-.067 1.686-.37.986-.953 1.78-2.053 2.078-.034.007-.065.032-.094.046 0 .147-.019.291.002.43.085.523-.011 1.031-.266 1.474-.342.594-.39 1.232-.401 1.878-.01.415-.151.743-.456 1.015-.046.041-.091.095-.147.116-.495.176-.706.576-.876 1.024-.432 1.15-.934 2.28-1.303 3.45-.344 1.091-.581 2.218-.813 3.341-.141.694-.352.996-1.054 1.142-.27.054-.478.152-.649.38-.271.359-.66.505-1.119.501-.81-.006-.81.002-1.203-.675-.132-.229-.266-.456-.45-.671v.994l-.652-.195c.073.127.117.21.163.29.459.786.912 1.575 1.375 2.359.209.352.209.722.174 1.112-.026.276-.04.56.002.832.079.527.169 1.056.31 1.57.249.915.195 1.813-.048 2.713-.252.936-.507 1.873-.76 2.809-.026.1-.057.2-.093.335h10.945v1.112c-.086.004-.182.017-.276.017-14.149 0-28.298 0-42.446.006-.25 0-.316-.077-.3-.306.016-.263.003-.529.003-.816h1.098c.88 0 1.762 0 2.644-.002.388 0 .616-.369.432-.697-.007-.017-.017-.032-.027-.047-.54-.851-.451-1.417.205-2.179.052-.062.096-.127.151-.198-.22-.171-.434-.321-.63-.492-.498-.44-.743-1.033-.286-1.738.17-.264.245-.587.402-.86.082-.145.233-.274.384-.351.274-.139.566-.236.855-.343.201-.075.312-.199.373-.413.241-.864.498-1.727.766-2.585.153-.493.239-.53.77-.488.226.017.456.006.68.028.181.021.254-.05.304-.213.239-.775.52-1.538.727-2.32.183-.686.535-1.264 1.008-1.775.503-.546.859-1.142.993-1.883.09-.504.308-.982.463-1.476.027-.08.042-.168.034-.253-.044-.478-.093-.954-.15-1.43-.016-.12-.07-.235-.106-.353l-.084.006c-.04.084-.083.167-.12.253-.383.883-.722 1.79-1.162 2.646-.583 1.132-1.24 2.23-1.879 3.335-.334.581-.715 1.138-1.042 1.721-.207.372-.52.554-.913.651-.216.055-.436.101-.69.161.168.214.315.392.453.576.264.356.199.673-.187.896-.322.186-.655.308-1.03.13-.07-.034-.18-.029-.256-.002-.43.144-.819.092-1.178-.19-.064-.048-.161-.076-.241-.075-.49.015-.668-.091-.861-.53l-.148-.338c-.157.064-.294.124-.436.178-.304.12-.604.08-.784-.108-.19-.194-.241-.477-.05-.764.23-.348.509-.667.788-.98.444-.497.907-.973 1.353-1.466.04-.044.04-.141.027-.207-.027-.12-.088-.232-.115-.354-.13-.555.314-.975.874-.832.406.1.408.103.614-.25.807-1.363 1.613-2.724 2.416-4.09.058-.097.08-.213.138-.314.126-.22.253-.439.396-.647.113-.169.28-.306.373-.48.429-.795.647-1.652.82-2.53.334-1.683.7-3.361 1.091-5.032.096-.409.308-.799.513-1.17.2-.364.522-.602.947-.707.58-.144 1.15-.317 1.779-.493z" mask="url(#9d0is1ekfd)"/>
                            </g>
                            <path fill="#1D1D1B" d="M6.707 53.543H4.993V50.1c-.02-.011-.04-.02-.061-.03L3.34 52.447l-1.566-2.34c-.018.003-.037.009-.054.015v3.414H0v-6.184c.599 0 1.186-.005 1.772.01.07.001.153.112.2.189.408.641.812 1.286 1.215 1.93.048.074.098.146.17.25.068-.1.123-.176.173-.254.405-.644.815-1.285 1.21-1.934.093-.148.194-.202.37-.198.526.01 1.052.003 1.597.003v6.195zM17.166 50.297c.516 0 1.006.034 1.49-.011.392-.036.633-.368.622-.728-.012-.356-.247-.66-.634-.692-.484-.037-.973-.009-1.478-.009v1.44zm2.57 1.108l1.497 2.149c-.685 0-1.316.006-1.948-.008-.065-.001-.143-.091-.19-.159-.326-.472-.655-.941-.96-1.425-.133-.214-.283-.326-.545-.287-.132.02-.268.004-.438.004v1.862h-1.727v-6.156c.046-.011.095-.034.145-.034 1.098.004 2.198-.007 3.296.02.553.014 1.062.196 1.504.547.922.73.94 2.617-.293 3.296l-.34.191zM9.446 50.454c.004.95.71 1.68 1.63 1.68.926.002 1.615-.718 1.61-1.684-.001-.945-.71-1.678-1.627-1.69-.909-.01-1.617.732-1.613 1.694m1.592 3.22c-1.697-.001-3.008-1.029-3.339-2.617-.37-1.79.963-3.588 2.82-3.798 1.445-.163 2.66.247 3.46 1.479.67 1.035.697 2.149.108 3.227-.603 1.102-1.593 1.642-2.858 1.71-.065.004-.128 0-.191 0M23.691 48.799L23.691 49.754 26.683 49.754 26.683 51.089 23.699 51.089 23.699 52.097 27.052 52.097 27.052 53.534 21.96 53.534 21.96 47.374 27.006 47.374 27.006 48.799zM39.567 49.338c-.254.628-.478 1.183-.71 1.75h1.41l-.7-1.75m3.524 4.218c-.578 0-1.13.006-1.684-.007-.08-.002-.189-.09-.225-.165-.12-.238-.22-.488-.312-.739-.056-.148-.138-.204-.3-.202-.672.007-1.345.007-2.017 0-.157-.002-.262.039-.3.197-.008.026-.02.052-.029.075-.122.275-.174.656-.388.796-.218.14-.597.042-.905.045-.28.002-.56 0-.882 0 .042-.112.07-.2.107-.286.823-1.906 1.65-3.81 2.464-5.721.08-.188.174-.253.377-.246.417.015.836-.003 1.253.012.082.003.207.075.237.146.87 1.993 1.73 3.99 2.59 5.987.01.022.008.05.014.108M28.018 47.366L29.732 47.366 29.732 52.052 32.785 52.052 32.785 53.541 28.018 53.541z"/>
                            <mask id="qdjg0ns5nf" fill="#fff">
                                <use xlink:href="#s08yolmwne"/>
                            </mask>
                            <path fill="#1D1D1B" d="M33.643 53.536L35.338 53.536 35.338 47.361 33.643 47.361zM38.932 58.606L43.08 58.606 43.08 57.537 38.932 57.537zM.052 58.615L4.197 58.615 4.197 57.531.052 57.531zM34.791 24.23c.075-.698.18-1.394.214-2.093.025-.529.008-1.069-.07-1.592-.098-.647-.41-1.178-1.127-1.378.897-.403 2.15.281 2.246 1.256.128 1.31-.251 2.51-.995 3.602l-.195.283-.073-.079M37.922 16.399c-.428.558-1.023.82-1.706.911-.59.08-1.18.15-1.787.208.293-.1.582-.221.88-.29.298-.07.61-.087.914-.132.626-.088 1.194-.319 1.7-.697" mask="url(#qdjg0ns5nf)"/>
                            <path fill="#1D1D1B" d="M33.793 19.47c-.173.178-.134.314.011.41.151.098.289.053.386-.142-.128-.089-.258-.175-.397-.269m-.182-.153c.423.114.77.324.99.727-.202.086-.388.212-.587.24-.231.03-.44-.118-.472-.349-.029-.195.042-.405.069-.618M17.707 5.898c-.057.091-.08.112-.084.135-.036.16-.11.283-.304.283-.2 0-.281-.118-.318-.298-.007-.045-.095-.075-.147-.113-.02.31.126.463.379.49.22.022.419-.047.514-.265.02-.045-.017-.112-.04-.232m.377.333l-.583.696c-.042-.037-.084-.077-.127-.116.088-.109.175-.22.276-.349-.696-.019-1.236-.174-1.59-.448.191-.32.511-.42.851-.433.29-.012.582.013.867.056.255.038.501.13.74-.103 0 .052.021.118-.003.16-.18.335-.092.66.053.972.113.242.094.394-.166.538-.33.18-.379.346-.27.608.308-.116.494-.525.884-.409.15.047.26.222.388.338-.011.02-.023.043-.036.064-.119-.006-.241-.029-.358-.014-.22.027-.436.1-.654.102-.169.002-.339-.074-.509-.115-.012-.035-.025-.071-.036-.107l-.515.677c.132-.454.379-.75.675-1.018.358-.326.415-.606.201-.997-.023-.043-.067-.077-.088-.102M20.327 6.12l-.06-.096c-.05.045-.096.095-.15.133-.1.067-.207.178-.302.172-.094-.005-.182-.133-.268-.212-.044-.039-.075-.09-.111-.135-.023.237.065.398.281.432.268.04.46-.096.61-.295m-.491.799l-.609-.428.144.78-.069.016-.371-1.605c.36 0 .683-.002 1.006 0 .39.001.49.084.578.466-.302.173-.559.463-.976.31-.013.032-.028.062-.044.092.14.093.278.189.417.28l-.076.089M19.413 8.659h-1.601c.444-.43 1.259-.43 1.601 0M26.357 37.91c-.002.24.132.417.322.413.216-.002.434-.234.436-.465.002-.22-.19-.446-.381-.448-.205-.002-.373.221-.377.5m-.262-.074c.006-.334.247-.576.576-.576.312.002.564.268.564.595-.002.331-.245.586-.568.586-.339.002-.576-.249-.572-.605M7.493 58.261v-.607h.576v.934s-.337.225-.77.225c-.533 0-1.1-.314-1.1-1.075 0-.707.546-1.074 1.097-1.074.541 0 .773.229.773.229l-.226.474s-.184-.152-.423-.152c-.308 0-.585.204-.585.523 0 .34.174.523.593.523h.065zM9.029 57.908c0 .285.101.467.302.467.2 0 .294-.182.294-.467 0-.214-.059-.456-.294-.456-.23 0-.302.242-.302.456m1.195 0c0 .67-.505.932-.893.932s-.901-.263-.901-.932c0-.67.526-.932.9-.932.376 0 .894.263.894.932M11.202 57.453c-.124 0-.191.071-.222.122v.585s.09.122.222.122c.157 0 .375-.094.375-.398 0-.264-.176-.431-.375-.431m.176 1.36c-.317 0-.398-.185-.398-.185v.15h-.533V56.4h.533v.703c.056-.094.291-.152.414-.152.445 0 .759.418.759.942 0 .568-.4.92-.775.92M12.446 58.778h.55v-1.79h-.55v1.79zm.274-2.004c-.172 0-.312-.133-.312-.296 0-.163.14-.293.312-.293.174 0 .315.13.315.293 0 .163-.141.296-.315.296zM13.906 57.616h.523c0-.15-.155-.221-.266-.221-.142 0-.257.116-.257.22m1.03.117l-.004.278h-1.05c0 .234.19.326.378.326.291 0 .465-.22.465-.22l.201.404s-.205.292-.677.292c-.568 0-.932-.424-.932-.93 0-.585.381-.93.842-.93.434 0 .777.3.777.78M15.81 57.888v.89h-.552v-1.79h.551v.23c.06-.163.268-.266.423-.266.254 0 .32.077.32.077l-.278.577s-.063-.048-.187-.048c-.153 0-.278.067-.278.33M18.333 57.616v1.162h-.547v-.948c0-.152-.06-.248-.207-.248-.116 0-.214.066-.214.248v.948h-.55v-1.79h.55v.23c.06-.163.268-.268.423-.268.41 0 .545.298.545.666M19.217 57.908c0 .285.101.467.302.467.2 0 .295-.182.295-.467 0-.214-.06-.456-.295-.456-.23 0-.302.242-.302.456m1.195 0c0 .67-.505.932-.893.932s-.901-.263-.901-.932c0-.67.526-.932.901-.932s.893.263.893.932M23.467 56.699L23.991 56.699 23.991 58.778 23.411 58.778 23.411 57.501 22.853 58.163 22.296 57.514 22.296 58.778 21.716 58.778 21.716 56.699 22.239 56.699 22.853 57.385zM24.441 58.082v-1.093h.551v.99c0 .154.06.25.205.25.118 0 .218-.066.218-.25v-.99h.547v1.79h-.547v-.232c-.06.163-.27.27-.427.27-.409 0-.547-.338-.547-.735M27.932 57.616v1.162h-.55v-.948c0-.152-.056-.248-.204-.248-.116 0-.214.066-.214.248v.948h-.551v-1.79h.551v.23c.06-.163.268-.268.423-.268.41 0 .545.298.545.666M28.378 58.778h.55v-1.79h-.55v1.79zm.276-2.004c-.175 0-.314-.133-.314-.296 0-.163.14-.293.314-.293.172 0 .313.13.313.293 0 .163-.141.296-.313.296zM30.154 56.953c.436 0 .65.281.65.281l-.181.371s-.119-.146-.366-.146c-.286 0-.464.205-.464.418 0 .208.166.402.434.402.239 0 .396-.156.396-.156l.182.377s-.27.313-.683.313c-.373 0-.898-.263-.898-.936 0-.665.51-.924.93-.924M31.17 58.778h.546v-1.79h-.547v1.79zm.273-2.004c-.174 0-.312-.133-.312-.296 0-.163.138-.293.312-.293s.315.13.315.293c0 .163-.141.296-.315.296zM32.673 57.596v.598c.033.054.098.125.222.125.2 0 .366-.17.366-.438 0-.306-.209-.41-.366-.41-.132 0-.222.125-.222.125m1.173.277c0 .525-.289.94-.76.94-.166 0-.342-.055-.413-.184v.763h-.533v-2.404h.533v.148s.08-.185.398-.185c.375 0 .775.356.775.922M34.612 58.2c0 .123.11.177.218.177.094 0 .197-.023.254-.092v-.214c-.053-.058-.147-.078-.254-.078-.08 0-.218.078-.218.208m.465-.51c-.025-.16-.108-.255-.308-.255-.174 0-.314.071-.435.16l-.176-.378c.173-.17.425-.268.664-.268.396 0 .785.264.785.887 0 .465.038.57.214.57l-.19.405c-.212 0-.378-.05-.474-.184-.107.12-.266.184-.46.184-.366 0-.615-.23-.615-.615 0-.38.342-.594.633-.594.122 0 .254.037.362.088M36.012 56.4h.564v1.61c0 .238.033.31.123.31.076 0 .141-.052.141-.052l.195.411c-.126.086-.264.133-.476.133-.384 0-.547-.247-.547-.787v-1.626z" mask="url(#qdjg0ns5nf)"/>
                        </g>
                    </g>
                </g>
            </g>
        </g>
    </g>
</svg>
